info face="Courier" size=14 bold=0 italic=0 charset="" unicode=1 stretchH=100 smooth=1 aa=1 padding=0,0,0,0 spacing=1,1 outline=0
common lineHeight=13 base=11 scaleW=256 scaleH=256 pages=1 packed=0 alphaChnl=0 redChnl=4 greenChnl=4 blueChnl=4
page id=0 file="Courier_0.png"
chars count=173
char id=32   x=149   y=41    width=24    height=1     xoffset=-8    yoffset=12    xadvance=8     page=0  chnl=15
char id=33   x=253   y=22    width=1     height=9     xoffset=4     yoffset=2     xadvance=8     page=0  chnl=15
char id=34   x=139   y=41    width=3     height=3     xoffset=3     yoffset=2     xadvance=8     page=0  chnl=15
char id=35   x=24    y=12    width=7     height=9     xoffset=1     yoffset=2     xadvance=8     page=0  chnl=15
char id=36   x=36    y=32    width=5     height=9     xoffset=2     yoffset=2     xadvance=8     page=0  chnl=15
char id=37   x=40    y=12    width=7     height=9     xoffset=1     yoffset=2     xadvance=8     page=0  chnl=15
char id=38   x=48    y=12    width=7     height=9     xoffset=1     yoffset=2     xadvance=8     page=0  chnl=15
char id=39   x=253   y=32    width=1     height=3     xoffset=4     yoffset=2     xadvance=8     page=0  chnl=15
char id=40   x=239   y=0     width=3     height=11    xoffset=3     yoffset=2     xadvance=8     page=0  chnl=15
char id=41   x=243   y=0     width=3     height=11    xoffset=3     yoffset=2     xadvance=8     page=0  chnl=15
char id=42   x=111   y=42    width=7     height=5     xoffset=1     yoffset=4     xadvance=8     page=0  chnl=15
char id=43   x=198   y=32    width=7     height=7     xoffset=1     yoffset=4     xadvance=8     page=0  chnl=15
char id=44   x=143   y=41    width=2     height=2     xoffset=3     yoffset=10    xadvance=8     page=0  chnl=15
char id=45   x=178   y=42    width=7     height=1     xoffset=1     yoffset=7     xadvance=8     page=0  chnl=15
char id=46   x=253   y=10    width=1     height=1     xoffset=4     yoffset=10    xadvance=8     page=0  chnl=15
char id=47   x=182   y=32    width=7     height=7     xoffset=1     yoffset=3     xadvance=8     page=0  chnl=15
char id=48   x=42    y=32    width=5     height=9     xoffset=2     yoffset=2     xadvance=8     page=0  chnl=15
char id=49   x=48    y=32    width=5     height=9     xoffset=2     yoffset=2     xadvance=8     page=0  chnl=15
char id=50   x=54    y=32    width=5     height=9     xoffset=2     yoffset=2     xadvance=8     page=0  chnl=15
char id=51   x=60    y=32    width=5     height=9     xoffset=2     yoffset=2     xadvance=8     page=0  chnl=15
char id=52   x=66    y=32    width=5     height=9     xoffset=2     yoffset=2     xadvance=8     page=0  chnl=15
char id=53   x=30    y=32    width=5     height=9     xoffset=2     yoffset=2     xadvance=8     page=0  chnl=15
char id=54   x=72    y=32    width=5     height=9     xoffset=2     yoffset=2     xadvance=8     page=0  chnl=15
char id=55   x=78    y=32    width=5     height=9     xoffset=2     yoffset=2     xadvance=8     page=0  chnl=15
char id=56   x=84    y=32    width=5     height=9     xoffset=2     yoffset=2     xadvance=8     page=0  chnl=15
char id=57   x=90    y=32    width=5     height=9     xoffset=2     yoffset=2     xadvance=8     page=0  chnl=15
char id=58   x=251   y=32    width=1     height=6     xoffset=4     yoffset=5     xadvance=8     page=0  chnl=15
char id=59   x=224   y=32    width=2     height=7     xoffset=3     yoffset=5     xadvance=8     page=0  chnl=15
char id=60   x=214   y=32    width=4     height=7     xoffset=2     yoffset=4     xadvance=8     page=0  chnl=15
char id=61   x=133   y=41    width=5     height=3     xoffset=2     yoffset=5     xadvance=8     page=0  chnl=15
char id=62   x=219   y=32    width=4     height=7     xoffset=3     yoffset=4     xadvance=8     page=0  chnl=15
char id=63   x=96    y=32    width=5     height=9     xoffset=2     yoffset=2     xadvance=8     page=0  chnl=15
char id=64   x=104   y=12    width=7     height=9     xoffset=1     yoffset=2     xadvance=8     page=0  chnl=15
char id=65   x=112   y=12    width=7     height=9     xoffset=1     yoffset=2     xadvance=8     page=0  chnl=15
char id=66   x=120   y=12    width=7     height=9     xoffset=1     yoffset=2     xadvance=8     page=0  chnl=15
char id=67   x=232   y=22    width=7     height=9     xoffset=1     yoffset=2     xadvance=8     page=0  chnl=15
char id=68   x=224   y=22    width=7     height=9     xoffset=1     yoffset=2     xadvance=8     page=0  chnl=15
char id=69   x=200   y=12    width=7     height=9     xoffset=1     yoffset=2     xadvance=8     page=0  chnl=15
char id=70   x=40    y=22    width=7     height=9     xoffset=1     yoffset=2     xadvance=8     page=0  chnl=15
char id=71   x=32    y=22    width=7     height=9     xoffset=1     yoffset=2     xadvance=8     page=0  chnl=15
char id=72   x=24    y=22    width=7     height=9     xoffset=1     yoffset=2     xadvance=8     page=0  chnl=15
char id=73   x=102   y=32    width=5     height=9     xoffset=2     yoffset=2     xadvance=8     page=0  chnl=15
char id=74   x=240   y=22    width=6     height=9     xoffset=1     yoffset=2     xadvance=8     page=0  chnl=15
char id=75   x=16    y=23    width=7     height=9     xoffset=1     yoffset=2     xadvance=8     page=0  chnl=15
char id=76   x=224   y=12    width=7     height=9     xoffset=1     yoffset=2     xadvance=8     page=0  chnl=15
char id=77   x=216   y=12    width=7     height=9     xoffset=1     yoffset=2     xadvance=8     page=0  chnl=15
char id=78   x=208   y=12    width=7     height=9     xoffset=1     yoffset=2     xadvance=8     page=0  chnl=15
char id=79   x=192   y=12    width=7     height=9     xoffset=1     yoffset=2     xadvance=8     page=0  chnl=15
char id=80   x=184   y=12    width=7     height=9     xoffset=1     yoffset=2     xadvance=8     page=0  chnl=15
char id=81   x=8     y=12    width=7     height=10    xoffset=1     yoffset=2     xadvance=8     page=0  chnl=15
char id=82   x=248   y=12    width=7     height=9     xoffset=1     yoffset=2     xadvance=8     page=0  chnl=15
char id=83   x=104   y=22    width=7     height=9     xoffset=1     yoffset=2     xadvance=8     page=0  chnl=15
char id=84   x=128   y=12    width=7     height=9     xoffset=1     yoffset=2     xadvance=8     page=0  chnl=15
char id=85   x=136   y=12    width=7     height=9     xoffset=1     yoffset=2     xadvance=8     page=0  chnl=15
char id=86   x=144   y=12    width=7     height=9     xoffset=1     yoffset=2     xadvance=8     page=0  chnl=15
char id=87   x=152   y=12    width=7     height=9     xoffset=1     yoffset=2     xadvance=8     page=0  chnl=15
char id=88   x=160   y=12    width=7     height=9     xoffset=1     yoffset=2     xadvance=8     page=0  chnl=15
char id=89   x=168   y=12    width=7     height=9     xoffset=1     yoffset=2     xadvance=8     page=0  chnl=15
char id=90   x=176   y=12    width=7     height=9     xoffset=1     yoffset=2     xadvance=8     page=0  chnl=15
char id=91   x=247   y=0     width=3     height=11    xoffset=3     yoffset=2     xadvance=8     page=0  chnl=15
char id=92   x=174   y=32    width=7     height=7     xoffset=1     yoffset=3     xadvance=8     page=0  chnl=15
char id=93   x=235   y=0     width=3     height=11    xoffset=3     yoffset=2     xadvance=8     page=0  chnl=15
char id=94   x=127   y=41    width=5     height=3     xoffset=2     yoffset=1     xadvance=8     page=0  chnl=15
char id=95   x=169   y=43    width=8     height=1     xoffset=0     yoffset=12    xadvance=8     page=0  chnl=15
char id=96   x=146   y=41    width=2     height=2     xoffset=3     yoffset=2     xadvance=8     page=0  chnl=15
char id=97   x=56    y=42    width=7     height=6     xoffset=1     yoffset=5     xadvance=8     page=0  chnl=15
char id=98   x=240   y=12    width=7     height=9     xoffset=1     yoffset=2     xadvance=8     page=0  chnl=15
char id=99   x=0     y=44    width=7     height=6     xoffset=1     yoffset=5     xadvance=8     page=0  chnl=15
char id=100  x=0     y=24    width=7     height=9     xoffset=1     yoffset=2     xadvance=8     page=0  chnl=15
char id=101  x=243   y=32    width=7     height=6     xoffset=1     yoffset=5     xadvance=8     page=0  chnl=15
char id=102  x=251   y=0     width=4     height=9     xoffset=2     yoffset=2     xadvance=8     page=0  chnl=15
char id=103  x=136   y=32    width=7     height=8     xoffset=1     yoffset=5     xadvance=8     page=0  chnl=15
char id=104  x=32    y=12    width=7     height=9     xoffset=1     yoffset=2     xadvance=8     page=0  chnl=15
char id=105  x=247   y=22    width=5     height=9     xoffset=2     yoffset=2     xadvance=8     page=0  chnl=15
char id=106  x=230   y=0     width=4     height=11    xoffset=2     yoffset=2     xadvance=8     page=0  chnl=15
char id=107  x=64    y=12    width=7     height=9     xoffset=1     yoffset=2     xadvance=8     page=0  chnl=15
char id=108  x=24    y=32    width=5     height=9     xoffset=2     yoffset=2     xadvance=8     page=0  chnl=15
char id=109  x=235   y=32    width=7     height=6     xoffset=1     yoffset=5     xadvance=8     page=0  chnl=15
char id=110  x=40    y=42    width=7     height=6     xoffset=1     yoffset=5     xadvance=8     page=0  chnl=15
char id=111  x=80    y=42    width=7     height=6     xoffset=1     yoffset=5     xadvance=8     page=0  chnl=15
char id=112  x=144   y=32    width=7     height=8     xoffset=1     yoffset=5     xadvance=8     page=0  chnl=15
char id=113  x=152   y=32    width=7     height=8     xoffset=1     yoffset=5     xadvance=8     page=0  chnl=15
char id=114  x=64    y=42    width=7     height=6     xoffset=1     yoffset=5     xadvance=8     page=0  chnl=15
char id=115  x=32    y=42    width=7     height=6     xoffset=1     yoffset=5     xadvance=8     page=0  chnl=15
char id=116  x=168   y=32    width=5     height=8     xoffset=2     yoffset=3     xadvance=8     page=0  chnl=15
char id=117  x=24    y=42    width=7     height=6     xoffset=1     yoffset=5     xadvance=8     page=0  chnl=15
char id=118  x=72    y=42    width=7     height=6     xoffset=1     yoffset=5     xadvance=8     page=0  chnl=15
char id=119  x=8     y=44    width=7     height=6     xoffset=1     yoffset=5     xadvance=8     page=0  chnl=15
char id=120  x=16    y=43    width=7     height=6     xoffset=1     yoffset=5     xadvance=8     page=0  chnl=15
char id=121  x=120   y=32    width=7     height=8     xoffset=1     yoffset=5     xadvance=8     page=0  chnl=15
char id=122  x=88    y=42    width=6     height=6     xoffset=1     yoffset=5     xadvance=8     page=0  chnl=15
char id=123  x=212   y=0     width=5     height=11    xoffset=2     yoffset=2     xadvance=8     page=0  chnl=15
char id=124  x=0     y=0     width=1     height=12    xoffset=4     yoffset=1     xadvance=8     page=0  chnl=15
char id=125  x=224   y=0     width=5     height=11    xoffset=2     yoffset=2     xadvance=8     page=0  chnl=15
char id=126  x=119   y=41    width=7     height=3     xoffset=1     yoffset=3     xadvance=8     page=0  chnl=15
char id=127  x=108   y=32    width=3     height=9     xoffset=3     yoffset=3     xadvance=8     page=0  chnl=15
char id=129  x=224   y=40    width=24    height=1     xoffset=-8    yoffset=12    xadvance=8     page=0  chnl=15
char id=141  x=174   y=40    width=24    height=1     xoffset=-8    yoffset=12    xadvance=8     page=0  chnl=15
char id=143  x=199   y=40    width=24    height=1     xoffset=-8    yoffset=12    xadvance=8     page=0  chnl=15
char id=144  x=119   y=45    width=24    height=1     xoffset=-8    yoffset=12    xadvance=8     page=0  chnl=15
char id=157  x=144   y=44    width=24    height=1     xoffset=-8    yoffset=12    xadvance=8     page=0  chnl=15
char id=169  x=128   y=32    width=7     height=8     xoffset=1     yoffset=2     xadvance=8     page=0  chnl=15
char id=171  x=95    y=42    width=7     height=5     xoffset=1     yoffset=6     xadvance=8     page=0  chnl=15
char id=174  x=160   y=32    width=7     height=8     xoffset=1     yoffset=2     xadvance=8     page=0  chnl=15
char id=183  x=251   y=10    width=1     height=1     xoffset=4     yoffset=7     xadvance=8     page=0  chnl=15
char id=187  x=103   y=42    width=7     height=5     xoffset=1     yoffset=6     xadvance=8     page=0  chnl=15
char id=188  x=96    y=12    width=7     height=9     xoffset=1     yoffset=2     xadvance=8     page=0  chnl=15
char id=189  x=232   y=12    width=7     height=9     xoffset=1     yoffset=2     xadvance=8     page=0  chnl=15
char id=190  x=80    y=12    width=7     height=9     xoffset=1     yoffset=2     xadvance=8     page=0  chnl=15
char id=192  x=98    y=0     width=7     height=11    xoffset=1     yoffset=0     xadvance=8     page=0  chnl=15
char id=193  x=170   y=0     width=7     height=11    xoffset=1     yoffset=0     xadvance=8     page=0  chnl=15
char id=194  x=162   y=0     width=7     height=11    xoffset=1     yoffset=0     xadvance=8     page=0  chnl=15
char id=195  x=146   y=0     width=7     height=11    xoffset=1     yoffset=0     xadvance=8     page=0  chnl=15
char id=196  x=82    y=0     width=7     height=11    xoffset=1     yoffset=0     xadvance=8     page=0  chnl=15
char id=197  x=178   y=0     width=7     height=11    xoffset=1     yoffset=0     xadvance=8     page=0  chnl=15
char id=198  x=8     y=23    width=7     height=9     xoffset=1     yoffset=2     xadvance=8     page=0  chnl=15
char id=199  x=16    y=12    width=7     height=10    xoffset=1     yoffset=3     xadvance=8     page=0  chnl=15
char id=200  x=34    y=0     width=7     height=11    xoffset=1     yoffset=0     xadvance=8     page=0  chnl=15
char id=201  x=66    y=0     width=7     height=11    xoffset=1     yoffset=0     xadvance=8     page=0  chnl=15
char id=202  x=74    y=0     width=7     height=11    xoffset=1     yoffset=0     xadvance=8     page=0  chnl=15
char id=203  x=130   y=0     width=7     height=11    xoffset=1     yoffset=0     xadvance=8     page=0  chnl=15
char id=204  x=206   y=0     width=5     height=11    xoffset=2     yoffset=0     xadvance=8     page=0  chnl=15
char id=205  x=200   y=0     width=5     height=11    xoffset=2     yoffset=0     xadvance=8     page=0  chnl=15
char id=206  x=194   y=0     width=5     height=11    xoffset=2     yoffset=0     xadvance=8     page=0  chnl=15
char id=207  x=218   y=0     width=5     height=11    xoffset=2     yoffset=0     xadvance=8     page=0  chnl=15
char id=208  x=88    y=12    width=7     height=9     xoffset=1     yoffset=2     xadvance=8     page=0  chnl=15
char id=209  x=186   y=0     width=7     height=11    xoffset=1     yoffset=0     xadvance=8     page=0  chnl=15
char id=210  x=122   y=0     width=7     height=11    xoffset=1     yoffset=0     xadvance=8     page=0  chnl=15
char id=211  x=114   y=0     width=7     height=11    xoffset=1     yoffset=0     xadvance=8     page=0  chnl=15
char id=212  x=106   y=0     width=7     height=11    xoffset=1     yoffset=0     xadvance=8     page=0  chnl=15
char id=213  x=2     y=0     width=7     height=11    xoffset=1     yoffset=0     xadvance=8     page=0  chnl=15
char id=214  x=90    y=0     width=7     height=11    xoffset=1     yoffset=0     xadvance=8     page=0  chnl=15
char id=215  x=206   y=32    width=7     height=7     xoffset=1     yoffset=4     xadvance=8     page=0  chnl=15
char id=216  x=56    y=12    width=7     height=9     xoffset=1     yoffset=2     xadvance=8     page=0  chnl=15
char id=217  x=58    y=0     width=7     height=11    xoffset=1     yoffset=0     xadvance=8     page=0  chnl=15
char id=218  x=18    y=0     width=7     height=11    xoffset=1     yoffset=0     xadvance=8     page=0  chnl=15
char id=219  x=10    y=0     width=7     height=11    xoffset=1     yoffset=0     xadvance=8     page=0  chnl=15
char id=220  x=50    y=0     width=7     height=11    xoffset=1     yoffset=0     xadvance=8     page=0  chnl=15
char id=221  x=42    y=0     width=7     height=11    xoffset=1     yoffset=0     xadvance=8     page=0  chnl=15
char id=222  x=48    y=22    width=7     height=9     xoffset=1     yoffset=2     xadvance=8     page=0  chnl=15
char id=223  x=56    y=22    width=7     height=9     xoffset=1     yoffset=2     xadvance=8     page=0  chnl=15
char id=224  x=64    y=22    width=7     height=9     xoffset=1     yoffset=2     xadvance=8     page=0  chnl=15
char id=225  x=72    y=22    width=7     height=9     xoffset=1     yoffset=2     xadvance=8     page=0  chnl=15
char id=226  x=80    y=22    width=7     height=9     xoffset=1     yoffset=2     xadvance=8     page=0  chnl=15
char id=227  x=88    y=22    width=7     height=9     xoffset=1     yoffset=2     xadvance=8     page=0  chnl=15
char id=228  x=96    y=22    width=7     height=9     xoffset=1     yoffset=2     xadvance=8     page=0  chnl=15
char id=229  x=0     y=13    width=7     height=10    xoffset=1     yoffset=1     xadvance=8     page=0  chnl=15
char id=230  x=48    y=42    width=7     height=6     xoffset=1     yoffset=5     xadvance=8     page=0  chnl=15
char id=231  x=112   y=32    width=7     height=8     xoffset=1     yoffset=5     xadvance=8     page=0  chnl=15
char id=232  x=112   y=22    width=7     height=9     xoffset=1     yoffset=2     xadvance=8     page=0  chnl=15
char id=233  x=120   y=22    width=7     height=9     xoffset=1     yoffset=2     xadvance=8     page=0  chnl=15
char id=234  x=72    y=12    width=7     height=9     xoffset=1     yoffset=2     xadvance=8     page=0  chnl=15
char id=235  x=128   y=22    width=7     height=9     xoffset=1     yoffset=2     xadvance=8     page=0  chnl=15
char id=236  x=0     y=34    width=5     height=9     xoffset=2     yoffset=2     xadvance=8     page=0  chnl=15
char id=237  x=6     y=34    width=5     height=9     xoffset=2     yoffset=2     xadvance=8     page=0  chnl=15
char id=238  x=12    y=33    width=5     height=9     xoffset=2     yoffset=2     xadvance=8     page=0  chnl=15
char id=239  x=18    y=33    width=5     height=9     xoffset=2     yoffset=2     xadvance=8     page=0  chnl=15
char id=240  x=136   y=22    width=7     height=9     xoffset=1     yoffset=2     xadvance=8     page=0  chnl=15
char id=241  x=144   y=22    width=7     height=9     xoffset=1     yoffset=2     xadvance=8     page=0  chnl=15
char id=242  x=152   y=22    width=7     height=9     xoffset=1     yoffset=2     xadvance=8     page=0  chnl=15
char id=243  x=160   y=22    width=7     height=9     xoffset=1     yoffset=2     xadvance=8     page=0  chnl=15
char id=244  x=168   y=22    width=7     height=9     xoffset=1     yoffset=2     xadvance=8     page=0  chnl=15
char id=245  x=176   y=22    width=7     height=9     xoffset=1     yoffset=2     xadvance=8     page=0  chnl=15
char id=246  x=184   y=22    width=7     height=9     xoffset=1     yoffset=2     xadvance=8     page=0  chnl=15
char id=247  x=190   y=32    width=7     height=7     xoffset=1     yoffset=4     xadvance=8     page=0  chnl=15
char id=248  x=227   y=32    width=7     height=6     xoffset=1     yoffset=5     xadvance=8     page=0  chnl=15
char id=249  x=192   y=22    width=7     height=9     xoffset=1     yoffset=2     xadvance=8     page=0  chnl=15
char id=250  x=200   y=22    width=7     height=9     xoffset=1     yoffset=2     xadvance=8     page=0  chnl=15
char id=251  x=208   y=22    width=7     height=9     xoffset=1     yoffset=2     xadvance=8     page=0  chnl=15
char id=252  x=216   y=22    width=7     height=9     xoffset=1     yoffset=2     xadvance=8     page=0  chnl=15
char id=253  x=26    y=0     width=7     height=11    xoffset=1     yoffset=2     xadvance=8     page=0  chnl=15
char id=254  x=138   y=0     width=7     height=11    xoffset=1     yoffset=2     xadvance=8     page=0  chnl=15
char id=255  x=154   y=0     width=7     height=11    xoffset=1     yoffset=2     xadvance=8     page=0  chnl=15
